<svg width="100" height="70" viewBox="0 0 100 70" fill="none" xmlns="http://www.w3.org/2000/svg">
<rect width="100" height="70" fill="#C4C4C4"/>
<path d="M80.2854 46.5578C80.2854 47.2628 80.0303 47.8749 79.5255 48.3832C79.0208 48.8915 78.4183 49.1429 77.7126 49.1429C76.988 49.1429 76.3801 48.8969 75.8835 48.3968C75.3868 47.8968 75.1426 47.2874 75.1426 46.555C75.1426 45.8254 75.3868 45.216 75.8835 44.7296C76.3801 44.2459 76.988 44 77.7126 44C78.4128 44 79.0208 44.2459 79.5255 44.746C80.0358 45.2488 80.2854 45.8527 80.2854 46.5578Z" fill="#999999"/>
<path d="M90 51.9575C90 54.1509 89.2063 56.0553 87.6359 57.6366C86.0654 59.2179 84.191 60 81.9958 60C79.7414 60 77.8501 59.2349 76.305 57.6791C74.7599 56.1233 74 54.2274 74 51.949C74 49.6791 74.7599 47.7832 76.305 46.2699C77.8501 44.7651 79.7414 44 81.9958 44C84.1741 44 86.0654 44.7651 87.6359 46.3209C89.2232 47.8852 90 49.7641 90 51.9575Z" fill="#999999"/>
<path d="M78.5717 54.4163C78.5717 54.7066 78.4941 54.9498 78.3343 55.1408C78.1745 55.3317 77.9736 55.4284 77.7271 55.4284C77.4737 55.4284 77.2637 55.3317 77.1017 55.1408C76.9396 54.9498 76.8574 54.7066 76.8574 54.4163V49.5991C76.8574 49.3088 76.9396 49.0656 77.1017 48.8668C77.2637 48.6733 77.4737 48.5713 77.7271 48.5713C77.9736 48.5713 78.1768 48.6733 78.3343 48.8747C78.4941 49.076 78.5717 49.3166 78.5717 49.5991V54.4163Z" fill="white"/>
<path d="M87.1403 54.4356C87.1403 54.7204 87.0346 54.959 86.832 55.1462C86.6264 55.3335 86.3651 55.4284 86.045 55.4284C85.7131 55.4284 85.4459 55.3335 85.2403 55.1462C85.0347 54.959 84.932 54.7204 84.932 54.4356V51.3829C84.932 51.0494 84.8233 50.7672 84.606 50.544C84.3887 50.3208 84.0979 50.2105 83.7367 50.2105C83.355 50.2105 83.0495 50.3208 82.8264 50.544C82.6032 50.7672 82.4916 51.0443 82.4916 51.3829V54.4356C82.4916 54.7204 82.3917 54.959 82.1862 55.1462C81.9806 55.3335 81.7192 55.4284 81.3903 55.4284C81.0732 55.4284 80.8118 55.3335 80.6004 55.1462C80.3919 54.959 80.2861 54.7204 80.2861 54.4356V49.7103C80.2861 49.4332 80.3948 49.1972 80.6092 48.9997C80.8235 48.8022 81.082 48.7021 81.3903 48.7021C81.9454 48.7021 82.3124 48.9073 82.4945 49.3255C82.9115 48.8201 83.5752 48.5713 84.4797 48.5713C85.3989 48.5713 86.1066 48.8304 86.6176 49.3409C86.9671 49.7052 87.1433 50.2105 87.1433 50.8544V54.4356H87.1403Z" fill="white"/>
<path d="M79.1425 46.5596C79.1431 46.9559 79.0008 47.2917 78.7218 47.5734C78.4429 47.855 78.1035 47.9994 77.7161 48C77.313 48.0006 76.9731 47.8637 76.6996 47.5861C76.4262 47.3084 76.286 46.9667 76.2854 46.564C76.2848 46.1613 76.4207 45.8223 76.6965 45.5503C76.9723 45.2782 77.3086 45.1434 77.7118 45.1428C78.1054 45.1422 78.439 45.2791 78.7188 45.5568C78.9985 45.828 79.1419 46.1633 79.1425 46.5596Z" fill="white"/>
<path d="M100 0L100 50C100 50 95.9759 25 68.8129 12.9167C41.6499 0.833322 0 1.05108e-06 0 1.05108e-06L100 0Z" fill="white" fill-opacity="0.2"/>
<path d="M0 0H50C50 0 30.625 5 17.2917 17.7083C3.95833 30.4167 0 50 0 50L0 0Z" fill="#FF7800"/>
<path d="M8.72 7.5C8.75667 7.5 8.78833 7.51333 8.815 7.54C8.84167 7.56667 8.855 7.59833 8.855 7.635V7.99C8.855 8.02667 8.84167 8.05833 8.815 8.085C8.78833 8.11167 8.75667 8.125 8.72 8.125H7.82V10.865C7.82 10.9017 7.80667 10.9333 7.78 10.96C7.75333 10.9867 7.72167 11 7.685 11H7.28C7.24333 11 7.21167 10.9867 7.185 10.96C7.15833 10.9333 7.145 10.9017 7.145 10.865V8.125H6.245C6.20833 8.125 6.17667 8.11167 6.15 8.085C6.12333 8.05833 6.11 8.02667 6.11 7.99V7.635C6.11 7.59833 6.12333 7.56667 6.15 7.54C6.17667 7.51333 6.20833 7.5 6.245 7.5H8.72ZM9.16551 8.805C9.17551 8.61833 9.21051 8.44333 9.27051 8.28C9.33384 8.11333 9.42551 7.97 9.54551 7.85C9.66551 7.72667 9.81551 7.63 9.99551 7.56C10.1755 7.48667 10.3888 7.45 10.6355 7.45C10.8788 7.45 11.0905 7.485 11.2705 7.555C11.4505 7.625 11.6005 7.72167 11.7205 7.845C11.8405 7.96833 11.9322 8.11167 11.9955 8.275C12.0588 8.43833 12.0955 8.615 12.1055 8.805C12.1088 8.86833 12.1105 8.93833 12.1105 9.015C12.1138 9.09167 12.1155 9.17167 12.1155 9.255C12.1155 9.335 12.1138 9.41333 12.1105 9.49C12.1105 9.56667 12.1088 9.63667 12.1055 9.7C12.0955 9.88667 12.0588 10.0633 11.9955 10.23C11.9355 10.3933 11.8455 10.5367 11.7255 10.66C11.6055 10.78 11.4538 10.875 11.2705 10.945C11.0905 11.015 10.8788 11.05 10.6355 11.05C10.3888 11.05 10.1755 11.015 9.99551 10.945C9.81551 10.875 9.66551 10.78 9.54551 10.66C9.42551 10.5367 9.33384 10.3933 9.27051 10.23C9.21051 10.0633 9.17551 9.88667 9.16551 9.7C9.16217 9.63667 9.15884 9.56667 9.15551 9.49C9.15551 9.41333 9.15551 9.335 9.15551 9.255C9.15551 9.17167 9.15551 9.09167 9.15551 9.015C9.15884 8.93833 9.16217 8.86833 9.16551 8.805ZM11.4305 8.83C11.4172 8.59 11.3388 8.405 11.1955 8.275C11.0555 8.14167 10.8688 8.075 10.6355 8.075C10.4022 8.075 10.2138 8.14167 10.0705 8.275C9.93051 8.405 9.85384 8.59 9.84051 8.83C9.83384 8.95667 9.83051 9.09833 9.83051 9.255C9.83051 9.40833 9.83384 9.54833 9.84051 9.675C9.85384 9.915 9.93051 10.1 10.0705 10.23C10.2138 10.36 10.4022 10.425 10.6355 10.425C10.8688 10.425 11.0555 10.36 11.1955 10.23C11.3388 10.1 11.4172 9.915 11.4305 9.675C11.4372 9.54833 11.4405 9.40833 11.4405 9.255C11.4405 9.09833 11.4372 8.95667 11.4305 8.83ZM14.242 7.5C14.6453 7.5 14.9586 7.595 15.182 7.785C15.4053 7.975 15.517 8.25333 15.517 8.62C15.517 8.98667 15.4053 9.26667 15.182 9.46C14.9586 9.65333 14.6453 9.75 14.242 9.75H13.442V10.865C13.442 10.9017 13.4286 10.9333 13.402 10.96C13.3753 10.9867 13.3436 11 13.307 11H12.902C12.8653 11 12.8336 10.9867 12.807 10.96C12.7803 10.9333 12.767 10.9017 12.767 10.865V7.635C12.767 7.59833 12.7803 7.56667 12.807 7.54C12.8336 7.51333 12.8653 7.5 12.902 7.5H14.242ZM13.442 9.125H14.217C14.407 9.125 14.5586 9.08833 14.672 9.015C14.7853 8.93833 14.842 8.80667 14.842 8.62C14.842 8.43333 14.7853 8.305 14.672 8.235C14.5586 8.16167 14.407 8.125 14.217 8.125H13.442V9.125Z" fill="white"/>
</svg>
