<svg width="50" height="50" viewBox="0 0 50 50" fill="none" xmlns="http://www.w3.org/2000/svg">
<path d="M44.8251 25.1787V26.2458C44.8251 32.221 34.7909 37.0643 22.414 37.0643C15.5821 37.0643 9.46813 35.5869 5.35742 33.2596C6.74346 38.6426 16.163 43.0981 27.5858 43.0981C39.9627 43.0981 49.9969 37.8677 49.9969 31.8926C49.9969 29.2653 48.0523 26.95 44.8251 25.1787Z" fill="#FCC62D"/>
<path d="M27.5859 43.0981C15.2089 43.0981 5.1748 37.8677 5.1748 31.8926V39.1745C5.1748 45.1496 15.2089 49.9938 27.5859 49.9938C39.9629 49.9938 49.997 45.1496 49.997 39.1745V31.8926C49.997 37.8677 39.9629 43.0981 27.5859 43.0981Z" fill="#E4AF18"/>
<path d="M7.76074 44.261C8.2693 44.7256 8.84596 45.1704 9.48467 45.5927V38.4462C8.84596 38.0066 8.2693 37.5454 7.76074 37.0645V44.261Z" fill="#CE9912"/>
<path d="M45.6875 38.4462V45.5927C46.3262 45.1712 46.9029 44.7256 47.4114 44.261V37.0645C46.9037 37.5454 46.3271 38.0066 45.6875 38.4462Z" fill="#CE9912"/>
<path d="M11.209 46.5978C11.7537 46.8797 12.3295 47.146 12.9329 47.3986V40.3365C12.3295 40.071 11.7537 39.7909 11.209 39.4961V46.5978Z" fill="#CE9912"/>
<path d="M42.2393 47.3976C42.8426 47.1459 43.4184 46.8787 43.9632 46.5968V39.4951C43.4184 39.7899 42.8426 40.0709 42.2393 40.3355V47.3976Z" fill="#CE9912"/>
<path d="M14.6562 48.0503C15.2131 48.2408 15.788 48.4183 16.3802 48.5838V41.5899C15.788 41.414 15.2131 41.2253 14.6562 41.0244V48.0503Z" fill="#CE9912"/>
<path d="M38.791 48.5838C39.3832 48.4183 39.9581 48.2408 40.5149 48.0503V41.0244C39.9581 41.2253 39.3832 41.414 38.791 41.5899V48.5838Z" fill="#CE9912"/>
<path d="M18.9668 49.2043C19.5297 49.3181 20.1055 49.4198 20.6907 49.5103V42.5767C20.1055 42.4793 19.5297 42.3707 18.9668 42.25V49.2043Z" fill="#CE9912"/>
<path d="M34.4814 49.5102C35.0667 49.4188 35.6425 49.3171 36.2054 49.2042V42.249C35.6425 42.3697 35.0667 42.4783 34.4814 42.5766V49.5102Z" fill="#CE9912"/>
<path d="M24.1377 49.9071C24.7049 49.9494 25.2807 49.9787 25.8616 49.9994V43.1011C25.2807 43.0787 24.7049 43.0476 24.1377 43.002V49.9071Z" fill="#CE9912"/>
<path d="M29.3096 50.0002C29.8905 49.9787 30.4663 49.9503 31.0335 49.908V43.002C30.4663 43.0476 29.8905 43.0787 29.3096 43.1019V50.0002Z" fill="#CE9912"/>
<path d="M22.414 30.1626C10.0371 30.1626 0.00292969 24.9322 0.00292969 18.957V26.2389C0.00292969 32.214 10.0371 37.0583 22.414 37.0583C34.791 37.0583 44.8251 32.214 44.8251 26.2389V18.957C44.8251 24.9322 34.791 30.1626 22.414 30.1626Z" fill="#E4AF18"/>
<path d="M2.58887 31.3256C3.09743 31.7902 3.67408 32.2349 4.3128 32.6573V25.5108C3.67408 25.0711 3.09743 24.61 2.58887 24.1299V31.3256Z" fill="#CE9912"/>
<path d="M40.5156 25.5106V32.6572C41.1543 32.2357 41.731 31.79 42.2396 31.3254V24.1289C41.7319 24.6099 41.1552 25.071 40.5156 25.5106Z" fill="#CE9912"/>
<path d="M6.03711 33.6623C6.58187 33.9441 7.15766 34.2105 7.76104 34.463V27.401C7.15766 27.1355 6.58187 26.8553 6.03711 26.5605V33.6623Z" fill="#CE9912"/>
<path d="M37.0674 34.4621C37.6708 34.2104 38.2466 33.944 38.7913 33.6613V26.5596C38.2466 26.8544 37.6708 27.1354 37.0674 27.4V34.4621Z" fill="#CE9912"/>
<path d="M9.48438 35.1147C10.0412 35.3052 10.6161 35.4828 11.2083 35.6483V28.6543C10.6161 28.4785 10.0412 28.2897 9.48438 28.0889V35.1147Z" fill="#CE9912"/>
<path d="M33.6191 35.6483C34.2113 35.4828 34.7862 35.3052 35.3431 35.1147V28.0889C34.7862 28.2897 34.2113 28.4785 33.6191 28.6543V35.6483Z" fill="#CE9912"/>
<path d="M13.7949 36.2688C14.3578 36.3826 14.9336 36.4843 15.5189 36.5748V29.6411C14.9336 29.5437 14.3578 29.4351 13.7949 29.3145V36.2688Z" fill="#CE9912"/>
<path d="M29.3096 36.5756C29.8948 36.4843 30.4706 36.3826 31.0335 36.2696V29.3145C30.4706 29.4351 29.8948 29.5437 29.3096 29.642V36.5756Z" fill="#CE9912"/>
<path d="M18.9668 36.9726C19.534 37.0148 20.1098 37.0441 20.6907 37.0648V30.1665C20.1098 30.1441 19.534 30.1131 18.9668 30.0674V36.9726Z" fill="#CE9912"/>
<path d="M24.1377 37.0647C24.7187 37.0431 25.2945 37.0147 25.8616 36.9725V30.0664C25.2945 30.1121 24.7187 30.1431 24.1377 30.1664V37.0647Z" fill="#CE9912"/>
<path d="M44.2368 28.7051C41.9293 33.4942 33.039 37.0644 22.4144 37.0644C18.4459 37.0644 14.7205 36.5645 11.4873 35.6913C14.6145 37.8143 20.1802 39.621 27.5862 39.621C39.3796 39.621 46.5494 35.0431 46.5494 31.8926C46.5494 30.841 45.7401 29.7256 44.2368 28.7051Z" fill="#FFD949"/>
<path d="M26.7238 28.4451C14.3469 28.4451 4.31275 23.6009 4.31275 17.6257V12.7539C1.60532 14.4511 0.00292969 16.5793 0.00292969 18.9635C0.00292969 24.9386 10.0371 30.169 22.414 30.169C28.3736 30.169 33.7851 28.9545 37.7992 27.0298C34.5315 27.9288 30.7535 28.4451 26.7238 28.4451Z" fill="#FFD949"/>
<path d="M26.7236 21.5434C14.3466 21.5434 4.3125 16.313 4.3125 10.3379V17.6198C4.3125 23.5949 14.3466 28.4392 26.7236 28.4392C39.1005 28.4392 49.1347 23.5949 49.1347 17.6198V10.3379C49.1347 16.313 39.1005 21.5434 26.7236 21.5434Z" fill="#E4AF18"/>
<path d="M6.89844 22.7054C7.407 23.17 7.98365 23.6148 8.62237 24.0372V16.8906C7.98365 16.451 7.407 15.9899 6.89844 15.5098V22.7054Z" fill="#CE9912"/>
<path d="M44.8252 16.8915V24.038C45.4639 23.6165 46.0406 23.1709 46.5491 22.7063V15.5098C46.0414 15.9907 45.4648 16.4519 44.8252 16.8915Z" fill="#CE9912"/>
<path d="M10.3467 25.0431C10.8914 25.325 11.4672 25.5914 12.0706 25.8439V18.7818C11.4672 18.5163 10.8914 18.2362 10.3467 17.9414V25.0431Z" fill="#CE9912"/>
<path d="M41.377 25.8429C41.9803 25.5912 42.5561 25.3249 43.1009 25.0422V17.9404C42.5561 18.2352 41.9803 18.5162 41.377 18.7808V25.8429Z" fill="#CE9912"/>
<path d="M13.7949 26.4946C14.3518 26.6851 14.9267 26.8627 15.5189 27.0282V20.0342C14.9267 19.8584 14.3518 19.6696 13.7949 19.4688V26.4946Z" fill="#CE9912"/>
<path d="M37.9297 27.0282C38.5219 26.8627 39.0968 26.6851 39.6536 26.4946V19.4688C39.0968 19.6696 38.5219 19.8584 37.9297 20.0342V27.0282Z" fill="#CE9912"/>
<path d="M18.1045 27.6496C18.6674 27.7634 19.2431 27.8651 19.8284 27.9556V21.022C19.2431 20.9246 18.6674 20.816 18.1045 20.6953V27.6496Z" fill="#CE9912"/>
<path d="M33.6191 27.9565C34.2044 27.8651 34.7802 27.7634 35.3431 27.6505V20.6953C34.7802 20.816 34.2044 20.9246 33.6191 21.0229V27.9565Z" fill="#CE9912"/>
<path d="M23.2764 28.3525C23.8435 28.3947 24.4193 28.424 25.0003 28.4447V21.5464C24.4193 21.524 23.8435 21.4929 23.2764 21.4473V28.3525Z" fill="#CE9912"/>
<path d="M28.4482 28.4446C29.0292 28.423 29.605 28.3946 30.1722 28.3523V21.4463C29.605 21.492 29.0292 21.523 28.4482 21.5463V28.4446Z" fill="#CE9912"/>
<path d="M49.1347 10.3436C49.1347 16.3187 39.1005 21.5491 26.7236 21.5491C14.3466 21.5491 4.3125 16.3187 4.3125 10.3436C4.3125 4.36844 14.3466 0 26.7236 0C39.1005 0 49.1347 4.36844 49.1347 10.3436Z" fill="#FCC62D"/>
<path d="M26.724 18.072C14.9306 18.072 7.76074 13.495 7.76074 10.3436C7.76074 7.19314 14.9306 2.58594 26.724 2.58594C38.5174 2.58594 45.6872 7.19314 45.6872 10.3436C45.6872 13.495 38.5174 18.072 26.724 18.072Z" fill="#FFD949"/>
<g clip-path="url(#clip0)">
<path d="M23.9505 6.8254C23.9505 7.28118 23.5382 7.6769 22.7223 8.00549C21.9065 8.33407 20.9328 8.4966 19.7924 8.4966C18.6213 8.4966 17.6388 8.3376 16.8361 8.01432C16.0334 7.69103 15.6387 7.29708 15.6387 6.82364C15.6387 6.35196 16.0334 5.95801 16.8361 5.64355C17.6388 5.33087 18.6213 5.17188 19.7924 5.17188C20.924 5.17188 21.9065 5.33087 22.7223 5.65415C23.547 5.97921 23.9505 6.36962 23.9505 6.8254Z" fill="#F0C41B"/>
<path d="M39.65 10.3162C39.65 11.7342 38.3672 12.9653 35.8291 13.9876C33.291 15.0098 30.2616 15.5155 26.7137 15.5155C23.0702 15.5155 20.0135 15.0208 17.5163 14.015C15.0192 13.0093 13.791 11.7836 13.791 10.3107C13.791 8.84324 15.0192 7.61762 17.5163 6.63932C20.0135 5.66652 23.0702 5.17188 26.7137 5.17188C30.2343 5.17188 33.291 5.66652 35.8291 6.6723C38.3945 7.68357 39.65 8.8982 39.65 10.3162Z" fill="#F0C41B"/>
<path d="M39.4302 10.1443C39.4302 11.5623 38.1475 12.7934 35.6094 13.8157C33.0713 14.8379 30.0419 15.3436 26.4939 15.3436C22.8505 15.3436 19.7938 14.8489 17.2966 13.8432C14.7994 12.8374 13.5713 11.6118 13.5713 10.1388C13.5713 8.67137 14.7994 7.44575 17.2966 6.46745C19.7938 5.49464 22.8505 5 26.4939 5C30.0146 5 33.0713 5.49465 35.6094 6.50042C38.1748 7.5117 39.4302 8.72633 39.4302 10.1443Z" fill="#F0C41B"/>
<path d="M21.1798 11.9056C21.1798 12.0933 21.0543 12.2505 20.7961 12.3739C20.5379 12.4974 20.2132 12.5599 19.8148 12.5599C19.4053 12.5599 19.0659 12.4974 18.8039 12.3739C18.542 12.2505 18.4092 12.0933 18.4092 11.9056V8.79139C18.4092 8.60372 18.542 8.44649 18.8039 8.318C19.0659 8.19289 19.4053 8.12695 19.8148 8.12695C20.2132 8.12695 20.5415 8.19289 20.7961 8.32307C21.0543 8.45325 21.1798 8.6088 21.1798 8.79139V11.9056Z" fill="#FFD949"/>
<path d="M35.0278 11.9181C35.0278 12.1022 34.857 12.2564 34.5295 12.3775C34.1973 12.4986 33.7749 12.5599 33.2575 12.5599C32.7212 12.5599 32.2893 12.4986 31.9571 12.3775C31.6248 12.2564 31.4587 12.1022 31.4587 11.9181V9.94458C31.4587 9.72899 31.2831 9.54656 30.9319 9.40228C30.5807 9.258 30.1108 9.18668 29.527 9.18668C28.91 9.18668 28.4164 9.258 28.0557 9.40228C27.695 9.54656 27.5146 9.72567 27.5146 9.94458V11.9181C27.5146 12.1022 27.3532 12.2564 27.021 12.3775C26.6888 12.4986 26.2663 12.5599 25.7348 12.5599C25.2222 12.5599 24.7998 12.4986 24.458 12.3775C24.1211 12.2564 23.9502 12.1022 23.9502 11.9181V8.86329C23.9502 8.68418 24.1258 8.53161 24.4723 8.40391C24.8188 8.27621 25.2364 8.21153 25.7348 8.21153C26.6318 8.21153 27.2251 8.34421 27.5193 8.61453C28.1933 8.28782 29.2659 8.12695 30.7278 8.12695C32.2133 8.12695 33.3572 8.29445 34.183 8.62448C34.7478 8.85998 35.0326 9.18668 35.0326 9.60295V11.9181H35.0278Z" fill="#FFD949"/>
<path d="M21.4275 6.82843C21.4282 7.00962 21.2655 7.16315 20.9467 7.29194C20.6278 7.42072 20.2398 7.48672 19.7971 7.48699C19.3363 7.48727 18.9478 7.42468 18.6352 7.29774C18.3226 7.1708 18.1624 7.01455 18.1617 6.83043C18.161 6.64632 18.3164 6.49133 18.6316 6.36693C18.9469 6.24253 19.3313 6.18092 19.7921 6.18064C20.2421 6.18036 20.6233 6.24296 20.9432 6.3699C21.263 6.49391 21.4268 6.64724 21.4275 6.82843Z" fill="#FFD949"/>
</g>
<defs>
<clipPath id="clip0">
<rect width="25.8589" height="10.3436" fill="white" transform="matrix(-1 0 0 1 39.6504 5.17188)"/>
</clipPath>
</defs>
</svg>
