<svg width="50" height="50" viewBox="0 0 50 50" fill="none" xmlns="http://www.w3.org/2000/svg">
<path d="M19.6427 7.99302C19.6427 10.1962 18.8455 12.1091 17.268 13.6974C15.6906 15.2858 13.8078 16.0714 11.6028 16.0714C9.33834 16.0714 7.43861 15.3029 5.8866 13.7401C4.33458 12.1774 3.57129 10.2731 3.57129 7.98448C3.57129 5.70442 4.33458 3.8001 5.8866 2.28006C7.43861 0.768559 9.33834 0 11.6028 0C13.7908 0 15.6906 0.76856 17.268 2.3313C18.8625 3.90257 19.6427 5.78981 19.6427 7.99302Z" fill="#999999"/>
<path d="M50 24.8672C50 31.7216 47.5198 37.6727 42.6121 42.6142C37.7045 47.5558 31.847 50 24.9868 50C17.9419 50 12.0317 47.6089 7.20318 42.7471C2.37468 37.8852 0 31.9607 0 24.8406C0 17.7471 2.37468 11.8225 7.20318 7.09352C12.0317 2.39107 17.9419 0 24.9868 0C31.7942 0 37.7045 2.39107 42.6121 7.25292C47.5726 12.1413 50 18.0128 50 24.8672Z" fill="#999999"/>
<path d="M14.2859 32.5519C14.2859 33.4591 14.0433 34.2191 13.544 34.8157C13.0447 35.4123 12.4169 35.7147 11.6465 35.7147C10.8547 35.7147 10.1985 35.4123 9.69198 34.8157C9.18552 34.2191 8.92871 33.4591 8.92871 32.5519V17.498C8.92871 16.5908 9.18552 15.8308 9.69198 15.2096C10.1985 14.6049 10.8547 14.2861 11.6465 14.2861C12.4169 14.2861 13.0518 14.6049 13.544 15.2342C14.0433 15.8634 14.2859 16.6153 14.2859 17.498V32.5519Z" fill="currentColor"/>
<path d="M41.0624 32.6123C41.0624 33.5021 40.7321 34.2477 40.0989 34.8329C39.4565 35.4181 38.6397 35.7147 37.6394 35.7147C36.6024 35.7147 35.7673 35.4181 35.1249 34.8329C34.4825 34.2477 34.1613 33.5021 34.1613 32.6123V23.0724C34.1613 22.0302 33.8217 21.1484 33.1426 20.451C32.4635 19.7535 31.555 19.4088 30.4262 19.4088C29.2332 19.4088 28.2787 19.7535 27.5813 20.451C26.8838 21.1484 26.5351 22.0142 26.5351 23.0724V32.6123C26.5351 33.5021 26.2231 34.2477 25.5807 34.8329C24.9383 35.4181 24.1215 35.7147 23.0937 35.7147C22.1025 35.7147 21.2858 35.4181 20.625 34.8329C19.9734 34.2477 19.6431 33.5021 19.6431 32.6123V17.8455C19.6431 16.9797 19.9826 16.2422 20.6525 15.6249C21.3225 15.0076 22.1301 14.695 23.0937 14.695C24.8281 14.695 25.9753 15.3363 26.5443 16.643C27.8474 15.0637 29.9214 14.2861 32.748 14.2861C35.6204 14.2861 37.8321 15.0958 39.4289 16.6911C40.521 17.8295 41.0716 19.4088 41.0716 21.421V32.6123H41.0624Z" fill="currentColor"/>
<path d="M15.2445 8.00532C15.2461 9.0144 14.8836 9.86941 14.1734 10.5866C13.4631 11.3038 12.5987 11.6714 11.6126 11.6729C10.586 11.6744 9.7205 11.3258 9.02424 10.6189C8.32798 9.91201 7.97097 9.04182 7.9694 8.01646C7.96783 6.99111 8.3141 6.12798 9.0163 5.4352C9.7185 4.74242 10.5748 4.39932 11.6014 4.39775C12.6038 4.39621 13.4531 4.74484 14.1655 5.45173C14.8779 6.14234 15.243 6.99625 15.2445 8.00532Z" fill="currentColor"/>
</svg>
